module gitlab.com/efronlicht/blog

go 1.21

require (
	github.com/PuerkitoBio/goquery v1.8.1
	github.com/fergusstrange/embedded-postgres v1.24.0
	github.com/gin-gonic/gin v1.9.1
	github.com/gomarkdown/markdown v0.0.0-20230322041520-c84983bdbf2a
	github.com/google/uuid v1.3.0
	github.com/jackc/pgx/v5 v5.4.3
	github.com/sourcegraph/syntaxhighlight v0.0.0-20170531221838-bd320f5d308e
	gitlab.com/efronlicht/enve v1.0.0
)

require (
	github.com/bytedance/sonic v1.9.1 // indirect
	github.com/chenzhuoyu/base64x v0.0.0-20221115062448-fe3a3abad311 // indirect
	github.com/gabriel-vasile/mimetype v1.4.2 // indirect
	github.com/gin-contrib/sse v0.1.0 // indirect
	github.com/go-playground/locales v0.14.1 // indirect
	github.com/go-playground/universal-translator v0.18.1 // indirect
	github.com/go-playground/validator/v10 v10.14.1 // indirect
	github.com/goccy/go-json v0.10.2 // indirect
	github.com/jackc/pgpassfile v1.0.0 // indirect
	github.com/jackc/pgservicefile v0.0.0-20221227161230-091c0ba34f0a // indirect
	github.com/json-iterator/go v1.1.12 // indirect
	github.com/klauspost/cpuid/v2 v2.2.4 // indirect
	github.com/leodido/go-urn v1.2.4 // indirect
	github.com/lib/pq v1.10.4 // indirect
	github.com/mattn/go-isatty v0.0.19 // indirect
	github.com/modern-go/concurrent v0.0.0-20180306012644-bacd9c7ef1dd // indirect
	github.com/modern-go/reflect2 v1.0.2 // indirect
	github.com/pelletier/go-toml/v2 v2.0.8 // indirect
	github.com/twitchyliquid64/golang-asm v0.15.1 // indirect
	github.com/ugorji/go/codec v1.2.11 // indirect
	github.com/xi2/xz v0.0.0-20171230120015-48954b6210f8 // indirect
	go.uber.org/atomic v1.11.0 // indirect
	go.uber.org/multierr v1.11.0 // indirect
	golang.org/x/arch v0.3.0 // indirect
	golang.org/x/crypto v0.11.0 // indirect
	golang.org/x/sys v0.10.0 // indirect
	golang.org/x/text v0.11.0 // indirect
	google.golang.org/protobuf v1.31.0 // indirect
	gopkg.in/yaml.v3 v3.0.1 // indirect
)

require (
	github.com/andybalholm/cascadia v1.3.2 // indirect
	github.com/kr/pretty v0.3.1 // indirect
	github.com/sourcegraph/annotate v0.0.0-20160123013949-f4cad6c6324d // indirect
	go.uber.org/zap v1.24.0
	golang.org/x/net v0.12.0
)
